…
lib_load: library 'sdtm' loaded

Filter DM data

datastep: columns decreased from 24 to 3

# A tibble: 85 × 3
   USUBJID    ARM   ARMCD
   <chr>      <chr> <chr>
 1 ABC-01-049 ARM D 4    
 2 ABC-01-050 ARM B 2    
 3 ABC-01-051 ARM A 1    
 4 ABC-01-052 ARM C 3    
 5 ABC-01-053 ARM B 2    
 6 ABC-01-054 ARM D 4    
 7 ABC-01-055 ARM C 3    
 8 ABC-01-056 ARM A 1    
 9 ABC-01-113 ARM D 4    
10 ABC-01-114 ARM B 2    
# … with 75 more rows
# ℹ Use `print(n = ...)` to see more rows
…
Create lookup for AE severity

    MILD MODERATE   SEVERE 
       1        2        3 

Prepare table data

datastep: columns decreased from 27 to 6

# A tibble: 145 × 6
   USUBJID ARM   AESEV AESEVN AESOC AEDECOD
   <chr>   <chr> <chr>  <dbl> <chr> <chr>  
 1 ABC-01… ARM D MODE…      2 Inve… BLOOD …
 2 ABC-01… ARM D MODE…      2 Inve… BLOOD …
 3 ABC-01… ARM D MILD       1 Musc… MUSCUL…
 4 ABC-01… ARM D MILD       1 Nerv… HEADAC…
 5 ABC-01… ARM D MODE…      2 Inve… LABORA…
 6 ABC-01… ARM B MILD       1 Resp… UPPER …
 7 ABC-01… ARM B MILD       1 Skin… RASH   
 8 ABC-01… ARM A MILD       1 Nerv… HEADAC…
 9 ABC-01… ARM A MILD       1 Nerv… HEADAC…
10 ABC-01… ARM A MILD       1 Gene… INFLUE…
# … with 135 more rows
# ℹ Use `print(n = ...)` to see more rows
…
=========================================================================
Perform Calculations
=========================================================================

Get SOC Frequencies

proc_freq: input data set 145 rows and 6 columns
           tables: AESOC * AESEV
           by: ARM
           view: TRUE
           output: 1 datasets

# A tibble: 240 × 8
   BY    VAR1  VAR2  CAT1       CAT2      N
   <chr> <chr> <chr> <chr>      <chr> <dbl>
 1 ARM A AESOC AESEV Blood and… MILD     37
 2 ARM A AESOC AESEV Blood and… MODE…    37
 3 ARM A AESOC AESEV Blood and… SEVE…    37
 4 ARM A AESOC AESEV Cardiac d… MILD     37
 5 ARM A AESOC AESEV Cardiac d… MODE…    37
 6 ARM A AESOC AESEV Cardiac d… SEVE…    37
 7 ARM A AESOC AESEV Congenita… MILD     37
 8 ARM A AESOC AESEV Congenita… MODE…    37
 9 ARM A AESOC AESEV Congenita… SEVE…    37
10 ARM A AESOC AESEV Ear and l… MILD     37
# … with 230 more rows, and 2 more
#   variables: CNT <dbl>, PCT <dbl>
# ℹ Use `print(n = ...)` to see more rows, and `colnames()` to see all variable names

Combine columns for SOC

datastep: columns decreased from 8 to 7

# A tibble: 240 × 7
   BY    VAR   CAT       CAT2      N VARORD
   <chr> <chr> <chr>     <chr> <dbl>  <dbl>
 1 ARM A AESOC Blood an… Mild     37      1
 2 ARM A AESOC Blood an… Mode…    37      1
 3 ARM A AESOC Blood an… Seve…    37      1
 4 ARM A AESOC Cardiac … Mild     37      1
 5 ARM A AESOC Cardiac … Mode…    37      1
 6 ARM A AESOC Cardiac … Seve…    37      1
 7 ARM A AESOC Congenit… Mild     37      1
 8 ARM A AESOC Congenit… Mode…    37      1
 9 ARM A AESOC Congenit… Seve…    37      1
10 ARM A AESOC Ear and … Mild     37      1
# … with 230 more rows, and 1 more
#   variable: CNTPCT <chr>
# ℹ Use `print(n = ...)` to see more rows, and `colnames()` to see all variable names
…
Get PT Frequencies

proc_freq: input data set 145 rows and 6 columns
           tables: AEDECOD * AESEV
           by: ARM
           view: TRUE
           output: 1 datasets

# A tibble: 876 × 7
   BY    VAR1    VAR2  CAT1     CAT2    CNT
   <chr> <chr>   <chr> <chr>    <chr> <dbl>
 1 ARM A AEDECOD AESEV ANXIETY  MILD      0
 2 ARM A AEDECOD AESEV ANXIETY  MODE…     0
 3 ARM A AEDECOD AESEV ANXIETY  SEVE…     0
 4 ARM A AEDECOD AESEV APPLICA… MILD      0
 5 ARM A AEDECOD AESEV APPLICA… MODE…     0
 6 ARM A AEDECOD AESEV APPLICA… SEVE…     0
 7 ARM A AEDECOD AESEV APPLICA… MILD      0
 8 ARM A AEDECOD AESEV APPLICA… MODE…     0
 9 ARM A AEDECOD AESEV APPLICA… SEVE…     0
10 ARM A AEDECOD AESEV BACK PA… MILD      2
# … with 866 more rows, and 1 more
#   variable: PCT <dbl>
# ℹ Use `print(n = ...)` to see more rows, and `colnames()` to see all variable names

Get unique SOC and PT combinations

proc_sort: input data set 73 rows and 6 columns
           by: AESOC AEDECOD
           keep: AESOC AEDECOD
           order: a a
           nodupkey: TRUE
           output data set 73 rows and 2 columns

# A tibble: 73 × 2
   AESOC                            AEDECOD
   <chr>                            <chr>  
 1 Blood and lymphatic system diso… NEUTRO…
 2 Cardiac disorders                PALPIT…
 3 Cardiac disorders                SINUS …
 4 Congenital, familial and geneti… DERMOI…
 5 Ear and labyrinth disorders      VERTIGO
 6 Endocrine disorders              PARATH…
 7 Gastrointestinal disorders       DIARRH…
 8 Gastrointestinal disorders       FOOD P…
 9 Gastrointestinal disorders       TOOTHA…
10 Gastrointestinal disorders       VOMITI…
# … with 63 more rows
# ℹ Use `print(n = ...)` to see more rows

Combine columns for PT

datastep: columns decreased from 7 to 6

# A tibble: 876 × 6
   BY    VAR     CAT    CAT2  VARORD CNTPCT
   <chr> <chr>   <chr>  <chr>  <dbl> <chr> 
 1 ARM A AEDECOD ANXIE… Mild       2 "  0 …
 2 ARM A AEDECOD ANXIE… Mode…      2 "  0 …
 3 ARM A AEDECOD ANXIE… Seve…      2 "  0 …
 4 ARM A AEDECOD APPLI… Mild       2 "  0 …
 5 ARM A AEDECOD APPLI… Mode…      2 "  0 …
 6 ARM A AEDECOD APPLI… Seve…      2 "  0 …
 7 ARM A AEDECOD APPLI… Mild       2 "  0 …
 8 ARM A AEDECOD APPLI… Mode…      2 "  0 …
 9 ARM A AEDECOD APPLI… Seve…      2 "  0 …
10 ARM A AEDECOD BACK … Mild       2 "  2 …
# … with 866 more rows
# ℹ Use `print(n = ...)` to see more rows

Pivot PT frequencies

proc_transpose: input data set 876 rows and 6 columns
                by: CAT
                var: CNTPCT
                id: BY CAT2
                copy: VAR VARORD
                name: NAME
                output dataset 73 rows and 16 columns

# A tibble: 73 × 16
   VAR   CAT   VARORD NAME  ARM A…¹ ARM A…²
   <chr> <chr>  <dbl> <chr> <chr>   <chr>  
 1 AEDE… ANXI…      2 CNTP… "  0 (… "  0 (…
 2 AEDE… APPL…      2 CNTP… "  0 (… "  0 (…
 3 AEDE… APPL…      2 CNTP… "  0 (… "  0 (…
 4 AEDE… BACK…      2 CNTP… "  2 (… "  0 (…
 5 AEDE… BASA…      2 CNTP… "  0 (… "  0 (…
 6 AEDE… BLOO…      2 CNTP… "  0 (… "  0 (…
 7 AEDE… BLOO…      2 CNTP… "  0 (… "  0 (…
 8 AEDE… BLOO…      2 CNTP… "  0 (… "  1 (…
 9 AEDE… BLOO…      2 CNTP… "  1 (… "  1 (…
10 AEDE… BLOO…      2 CNTP… "  0 (… "  0 (…
# … with 63 more rows, 10 more variables:
#   `ARM A.Severe` <chr>,
#   `ARM B.Mild` <chr>,
#   `ARM B.Moderate` <chr>,
#   `ARM B.Severe` <chr>,
#   `ARM C.Mild` <chr>,
#   `ARM C.Moderate` <chr>, …
# ℹ Use `print(n = ...)` to see more rows, and `colnames()` to see all variable names

Join in SOC

datastep: columns increased from 16 to 17

# A tibble: 73 × 17
   VAR   CAT2  VARORD NAME  ARM A…¹ ARM A…²
   <chr> <chr>  <dbl> <chr> <chr>   <chr>  
 1 AEDE… Anxi…      2 CNTP… "  0 (… "  0 (…
 2 AEDE… Appl…      2 CNTP… "  0 (… "  0 (…
 3 AEDE… Appl…      2 CNTP… "  0 (… "  0 (…
 4 AEDE… Back…      2 CNTP… "  2 (… "  0 (…
 5 AEDE… Basa…      2 CNTP… "  0 (… "  0 (…
 6 AEDE… Bloo…      2 CNTP… "  0 (… "  0 (…
 7 AEDE… Bloo…      2 CNTP… "  0 (… "  0 (…
 8 AEDE… Bloo…      2 CNTP… "  0 (… "  1 (…
 9 AEDE… Bloo…      2 CNTP… "  1 (… "  1 (…
10 AEDE… Bloo…      2 CNTP… "  0 (… "  0 (…
# … with 63 more rows, 11 more variables:
#   `ARM A.Severe` <chr>,
#   `ARM B.Mild` <chr>,
#   `ARM B.Moderate` <chr>,
#   `ARM B.Severe` <chr>,
#   `ARM C.Mild` <chr>,
#   `ARM C.Moderate` <chr>, …
# ℹ Use `print(n = ...)` to see more rows, and `colnames()` to see all variable names

Stack SOC and PT counts

datastep: columns started with 16 and ended with 16

# A tibble: 93 × 16
   VAR   CAT      CAT2  VARORD ARM A…¹ ARM A…² ARM A…³ ARM B…⁴ ARM B…⁵ ARM B…⁶ ARM C…⁷ ARM C…⁸
   <chr> <chr>    <chr>  <dbl> <chr>   <chr>   <chr>   <chr>   <chr>   <chr>   <chr>   <chr>  
 1 AESOC Blood a… <NA>       1 "  0 (… "  0 (… "  0 (… "  0 (… "  0 (… "  0 (… "  0 (… "  1 (…
 2 AESOC Cardiac… <NA>       1 "  0 (… "  0 (… "  0 (… "  0 (… "  0 (… "  0 (… "  0 (… "  0 (…
 3 AESOC Congeni… <NA>       1 "  0 (… "  0 (… "  0 (… "  1 (… "  0 (… "  0 (… "  0 (… "  0 (…
 4 AESOC Ear and… <NA>       1 "  0 (… "  0 (… "  0 (… "  0 (… "  1 (… "  0 (… "  0 (… "  0 (…
 5 AESOC Endocri… <NA>       1 "  0 (… "  0 (… "  0 (… "  0 (… "  0 (… "  0 (… "  1 (… "  0 (…
 6 AESOC Gastroi… <NA>       1 "  0 (… "  1 (… "  0 (… "  4 (… "  1 (… "  0 (… "  0 (… "  0 (…
 7 AESOC General… <NA>       1 "  2 (… "  0 (… "  0 (… "  0 (… "  0 (… "  0 (… "  3 (… "  0 (…
 8 AESOC Infecti… <NA>       1 "  7 (… "  5 (… "  0 (… "  7 (… "  1 (… "  0 (… "  6 (… "  3 (…
 9 AESOC Injury,… <NA>       1 "  0 (… "  0 (… "  0 (… "  0 (… "  0 (… "  0 (… "  0 (… "  1 (…
10 AESOC Investi… <NA>       1 "  4 (… "  2 (… "  0 (… "  1 (… "  0 (… "  0 (… "  2 (… "  1 (…
# … with 83 more rows, 4 more variables: `ARM C.Severe` <chr>, `ARM D.Mild` <chr>,
#   `ARM D.Moderate` <chr>, `ARM D.Severe` <chr>, and abbreviated variable names
#   ¹​`ARM A.Mild`, ²​`ARM A.Moderate`, ³​`ARM A.Severe`, ⁴​`ARM B.Mild`, ⁵​`ARM B.Moderate`,
#   ⁶​`ARM B.Severe`, ⁷​`ARM C.Mild`, ⁸​`ARM C.Moderate`
# ℹ Use `print(n = ...)` to see more rows, and `colnames()` to see all variable names

proc_sort: input data set 93 rows and 16 columns
           by: CAT VARORD CAT2
           keep: VAR CAT CAT2 VARORD ARM A.Mild ARM A.Moderate ARM A.Severe ARM B.Mild ARM B.Moderate ARM B.Severe ARM C.Mild ARM C.Moderate ARM C.Severe ARM D.Mild ARM D.Moderate ARM D.Severe
           order: a a a
           nodupkey: FALSE
           output data set 93 rows and 16 columns

# A tibble: 93 × 16
   VAR     CAT    CAT2  VARORD ARM A…¹ ARM A…² ARM A…³ ARM B…⁴ ARM B…⁵ ARM B…⁶ ARM C…⁷ ARM C…⁸
   <chr>   <chr>  <chr>  <dbl> <chr>   <chr>   <chr>   <chr>   <chr>   <chr>   <chr>   <chr>  
 1 AESOC   Blood… <NA>       1 "  0 (… "  0 (… "  0 (… "  0 (… "  0 (… "  0 (… "  0 (… "  1 (…
 2 AEDECOD Blood… Neut…      2 "  0 (… "  0 (… "  0 (… "  0 (… "  0 (… "  0 (… "  0 (… "  1 (…
 3 AESOC   Cardi… <NA>       1 "  0 (… "  0 (… "  0 (… "  0 (… "  0 (… "  0 (… "  0 (… "  0 (…
 4 AEDECOD Cardi… Palp…      2 "  0 (… "  0 (… "  0 (… "  0 (… "  0 (… "  0 (… "  0 (… "  0 (…
 5 AEDECOD Cardi… Sinu…      2 "  0 (… "  0 (… "  0 (… "  0 (… "  0 (… "  0 (… "  0 (… "  0 (…
 6 AESOC   Conge… <NA>       1 "  0 (… "  0 (… "  0 (… "  1 (… "  0 (… "  0 (… "  0 (… "  0 (…
 7 AEDECOD Conge… Derm…      2 "  0 (… "  0 (… "  0 (… "  1 (… "  0 (… "  0 (… "  0 (… "  0 (…
 8 AESOC   Ear a… <NA>       1 "  0 (… "  0 (… "  0 (… "  0 (… "  1 (… "  0 (… "  0 (… "  0 (…
 9 AEDECOD Ear a… Vert…      2 "  0 (… "  0 (… "  0 (… "  0 (… "  1 (… "  0 (… "  0 (… "  0 (…
10 AESOC   Endoc… <NA>       1 "  0 (… "  0 (… "  0 (… "  0 (… "  0 (… "  0 (… "  1 (… "  0 (…
# … with 83 more rows, 4 more variables: `ARM C.Severe` <chr>, `ARM D.Mild` <chr>,
#   `ARM D.Moderate` <chr>, `ARM D.Severe` <chr>, and abbreviated variable names
#   ¹​`ARM A.Mild`, ²​`ARM A.Moderate`, ³​`ARM A.Severe`, ⁴​`ARM B.Mild`, ⁵​`ARM B.Moderate`,
#   ⁶​`ARM B.Severe`, ⁷​`ARM C.Mild`, ⁸​`ARM C.Moderate`
# ℹ Use `print(n = ...)` to see more rows, and `colnames()` to see all variable names
…
=========================================================================
Create final data frame
=========================================================================

datastep: columns increased from 14 to 16

# A tibble: 94 × 16
   VAR     CAT    CAT2  VARORD ARM A…¹ ARM A…² ARM A…³ ARM B…⁴ ARM B…⁵ ARM B…⁶ ARM C…⁷ ARM C…⁸
   <chr>   <chr>  <chr>  <dbl> <chr>   <chr>   <chr>   <chr>   <chr>   <chr>   <chr>   <chr>  
 1 AESEV   All A… <NA>      NA " 27 (… " 10 (… "  0 (… " 24 (… "  6 (… "  2 (… " 29 (… "  7 (…
 2 AESOC   Blood… <NA>       1 "  0 (… "  0 (… "  0 (… "  0 (… "  0 (… "  0 (… "  0 (… "  1 (…
 3 AEDECOD Blood… Neut…      2 "  0 (… "  0 (… "  0 (… "  0 (… "  0 (… "  0 (… "  0 (… "  1 (…
 4 AESOC   Cardi… <NA>       1 "  0 (… "  0 (… "  0 (… "  0 (… "  0 (… "  0 (… "  0 (… "  0 (…
 5 AEDECOD Cardi… Palp…      2 "  0 (… "  0 (… "  0 (… "  0 (… "  0 (… "  0 (… "  0 (… "  0 (…
 6 AEDECOD Cardi… Sinu…      2 "  0 (… "  0 (… "  0 (… "  0 (… "  0 (… "  0 (… "  0 (… "  0 (…
 7 AESOC   Conge… <NA>       1 "  0 (… "  0 (… "  0 (… "  1 (… "  0 (… "  0 (… "  0 (… "  0 (…
 8 AEDECOD Conge… Derm…      2 "  0 (… "  0 (… "  0 (… "  1 (… "  0 (… "  0 (… "  0 (… "  0 (…
 9 AESOC   Ear a… <NA>       1 "  0 (… "  0 (… "  0 (… "  0 (… "  1 (… "  0 (… "  0 (… "  0 (…
10 AEDECOD Ear a… Vert…      2 "  0 (… "  0 (… "  0 (… "  0 (… "  1 (… "  0 (… "  0 (… "  0 (…
# … with 84 more rows, 4 more variables: `ARM C.Severe` <chr>, `ARM D.Mild` <chr>,
#   `ARM D.Moderate` <chr>, `ARM D.Severe` <chr>, and abbreviated variable names
#   ¹​`ARM A.Mild`, ²​`ARM A.Moderate`, ³​`ARM A.Severe`, ⁴​`ARM B.Mild`, ⁵​`ARM B.Moderate`,
#   ⁶​`ARM B.Severe`, ⁷​`ARM C.Mild`, ⁸​`ARM C.Moderate`
# ℹ Use `print(n = ...)` to see more rows, and `colnames()` to see all variable names
…
